ability = {
	force_attack = {
		name = ABILITY_FORCE_ATTACK
		desc = ABILITY_FORCE_ATTACK_DESC

		sound_effect = command_power_ability_offensive

		type = army_leader


		allowed = {
			is_leading_army_group = no
			is_border_war = no
			OWNER = {
				if = {
					limit = {
						has_dlc = "Waking the Tiger"
					}
					NOT = { has_completed_focus = CHI_dare_to_die_corps }
				}
			}
			OWNER = {
				NOT = { tag = FRA }
			}
			AND = {
				OWNER = {
					NOT = { tag = ENG }
				}
				NOT = { has_global_flag = fall_of_france }
			}			
		}

		ai_will_do = {
			factor = -1
			modifier = {
				FROM = {
					has_war_support > 0.1
					command_power > 1.5
				}
				check_variable = { num_units_offensive_combats > 6 }

				set_temp_variable = { temp = avg_offensive_combat_status }
				check_variable = { temp > 0.45 }
				check_variable = { ai_random > temp }

				add = 2
			}
		}

		cost = 0.0
		duration = 168

		one_time_effect = {
			add_temporary_buff_to_units = {
				combat_offense = 0.07
				combat_breakthrough = 0.07
				org_damage_multiplier = -0.20
				str_damage_multiplier = 0.55

				days = 7
				tooltip = ABILITY_FORCE_ATTACK_TOOLTIP
			}
		}
	}
	
	last_stand = {
		name = ABILITY_LAST_STAND
		desc = ABILITY_LAST_STAND_DESC
		
		sound_effect = command_power_ability_offensive
		
		type = army_leader
		
		allowed = {
			is_leading_army_group = no
			is_border_war = no
			OWNER = {
				NOT = { has_completed_focus = JAP_warrior_spirit }
			}
			OWNER = {
				NOT = { tag = FRA }
			}
			AND = {
				OWNER = {
					NOT = { tag = ENG }
				}
				NOT = { has_global_flag = fall_of_france }
			}			
		}
		
		cost = 0.0
		duration = 168
		
		one_time_effect = {
			add_temporary_buff_to_units = {
				combat_defense = 0.07
				combat_entrenchment = 0.07
				org_damage_multiplier = -0.20
				str_damage_multiplier = 0.55
				
				days = 7
				tooltip = ABILITY_LAST_STAND_TOOLTIP
			}
		}
		
		ai_will_do = {
			factor = -1
			modifier = {
				FROM = {
					has_war_support > 0.4
				}
				
				check_variable = { num_units_defensive_combats > 6 }
				
				set_temp_variable = { temp = avg_defensive_combat_status }
				check_variable = { temp < 0.40 }
				check_variable = { ai_random > temp }
				
				add = 2
			}
		}
	}
	
	siege_artillery = {
		name = ABILITY_SIEGE_ARTILLERY
		desc = ABILITY_SIEGE_ARTILLERY_DESC
		
		type = army_leader
		
		allowed = {
			has_ability = siege_artillery
			is_border_war = no
		}
		
		unit_modifiers = {
			fort = {
				attack = 0.04
			}
			fortification_damage = 1.15
			fortification_collateral_chance = 1.15
		}
		cost = 0.03
		duration = 168
		
		
		ai_will_do = {
			factor = -1
			modifier = {
				FROM = {
					command_power > 1.5
				}
				
				set_temp_variable = { temp = num_units_offensive_combats }
				check_variable = { temp > 6 }
				set_temp_variable = { temp2 = num_units_offensive_combats_against@fort }
				divide_temp_variable = { temp2 = temp }
				check_variable = { temp2 > 0.5 }
				
				add = 2
			}
		}
	}

	glider_planes = {
		name = ABILITY_GLIDER_PLANES_ARTILLERY
		desc = ABILITY_GLIDER_PLANES_ARTILLERY_DESC

		type = army_leader

		allowed = {
			has_ability = glider_planes
			is_border_war = no
		}

		unit_modifiers = {
			paratrooper_count_per_plane = 1.0
			paradrop_organization_factor = 2.0
			paratrooper_aa_defense = 0.5
		}

		cost = 0.1
		duration = 168
	}

	probing_attack = {
		name = ABILITY_PROBING_ATTACK
		desc = ABILITY_PROBING_ATTACK_DESC

		type = army_leader

		allowed = {
			has_ability = probing_attack
			is_border_war = no
		}

		unit_modifiers = {
			dont_lose_dig_in_on_attack = 1.0
			offence = -0.05
		}

		cancelable = yes
		cost = 0.1
		duration = -1
	}

	extra_suplies = {
		name = ABILITY_EXTRA_SUPLIES
		desc = ABILITY_EXTRA_SUPLIES_DESC

		type = army_leader

		allowed = {
			has_ability = extra_suplies
			is_border_war = no
		}

		unit_modifiers = {
			no_supply_grace = 168
		}

		one_time_effect = {
			supply_units = 168
		}

		cost = 0.1
		duration = 168
		cooldown = 504
	}

	requisition_winter_gear = {
		name = ABILITY_REQUISITION_WINTER_GEAR
		desc = ABILITY_REQUISITION_WINTER_GEAR_DESC

		type = army_leader

		allowed = {
			has_ability = requisition_winter_gear
			is_border_war = no
		}

		unit_modifiers = {
			acclimatization_cold_climate_gain_factor = 0.75
		}

		cost = 0.1
		duration = 168


		ai_will_do = {
			factor = -1
			modifier = {
				FROM = {
					command_power > 2.0
				}
				check_variable = { num_units_on_climate@cold_climate > 8 }
				set_temp_variable = { temp = avg_units_acclimation@cold_climate }
				divide_temp_variable = { temp =  num_units }
				check_variable = { temp < 0.5 }

				add = 2
			}
		}
	}
}
