state=
{
	id=100
	name="STATE_100"
	manpower = 115870
	
	state_category = rural
	
	
	history=
	{
		owner = ENG
		buildings = {
			12674 ={
				naval_base = 1
			}
		}
		add_core_of = DEN
	}
	provinces=
	{
4861 12674 12689 	}
}
