state=
{
	id=327
	name="STATE_327" # Luzon
	manpower = 3548684
	
	state_category = city
				resources={
		steel=24
	}
	history=
	{
		owner = PHI
		buildings = {
			infrastructure = 4
			arms_factory = 1
			industrial_complex = 4
			air_base = 6
			10265 = {
				naval_base = 8
			}
		}
		victory_points = {
			10265 15 
		}
		victory_points = {
			1221 1 
		}
		add_core_of = PHI
	}

	provinces={
		1221 1288 7275 7323 7351 10165 10236 10265 12236 13274 13275 13276
	}
}
