
state={
	id=394
	name="STATE_394"
	manpower = 2939004
	state_category = large_city
	
	resources={
		steel=84
	}

	history={
		owner = USA
		buildings = {
			infrastructure = 6
			industrial_complex = 9
		}
		add_core_of = USA
		victory_points = {
			12357 5 
		}

	}

	provinces={
		703 926 1560 1760 1849 3699 4029 4166 4738 4834 7776 7829 9657 9678 10341 10526 12357 12456 
	}
}
