
state={
	id=52
	name="STATE_52"
	manpower = 2679413
	resources={
		aluminium=60
	}
	
	state_category = metropolis

	history={
		owner = GER
		victory_points = {
			692 30
		}
		buildings = {
			infrastructure = 7
			arms_factory = 6
			air_base = 6
		}
		add_core_of = GER

		1939.1.1 = {
			buildings = {
				air_base = 10
			}
		}
	}

	provinces={
		692 707 708 3688 3705 6540 6693 9652 9666 11620 11638 11653 
	}
}
