state={
	id=808
	name="STATE_808"

	history={
		owner = SOV
		buildings = {
			infrastructure = 5
			air_base = 4
		}
		add_core_of = SOV

	}

	provinces={
		403 3214 3328 3348 6308 6323 6352 6368 9385 10301 11389 
	}
	manpower=1
	buildings_max_level_factor=1.000
	state_category = town
}
