﻿###########################
# USA Events
###########################

add_namespace = mtg_usa_foreign_support

###  ##  ###  ### ###  ##  #  #      ## #  # ###  ###   ##  ###  ### 
#   #  # #  # #    #  #    ## #     #   #  # #  # #  # #  # #  #  #  
##  #  # ###  ##   #  # ## # ##      #  #  # ###  ###  #  # ###   #  
#   #  # #  # #    #  #  # #  #       # #  # #    #    #  # #  #  #  
#    ##  #  # ### ###  ##  #  #     ##   ##  #    #     ##  #  #  #  


##event for FROM, USA wants donations
country_event = {
	id = mtg_usa_foreign_support.1
	title = mtg_usa_foreign_support.1.t
	desc = mtg_usa_foreign_support.1.desc
	picture = GFX_report_event_german_politician_speech

	is_triggered_only = yes
	option = { #agree
		name = mtg_usa_foreign_support.1.a
		ai_chance = {
			factor = 70
			
		}
		add_political_power = 25
		set_country_flag = USA_foreign_support_donations_approved
		FROM = {
			country_event = mtg_usa_foreign_support.2
		}
		effect_tooltip = {
			FROM = {
				add_offsite_building = { type = industrial_complex level = 1 }
			}
		}
	}
	option = { #refuse
		name = mtg_usa_foreign_support.1.b
		ai_chance = {
			factor = 30
		}
		add_political_power = -25
		FROM = {
			country_event = mtg_usa_foreign_support.3
		}
	}
}
#event for US, donations approved
country_event = {
	id = mtg_usa_foreign_support.2
	title = mtg_usa_foreign_support.2.t
	desc = mtg_usa_foreign_support.2.desc
	picture = GFX_report_event_hitler_handshake

	is_triggered_only = yes
	option = { #agree
		name = mtg_usa_foreign_support.2.a
		ai_chance = {
			factor = 70
		}
		add_offsite_building = { type = industrial_complex level = 1 }	
	}
}
#event for US, donations refused
country_event = {
	id = mtg_usa_foreign_support.3
	title = mtg_usa_foreign_support.3.t
	desc = mtg_usa_foreign_support.3.desc
	picture = GFX_report_event_generic_read_write

	is_triggered_only = yes
	option = { #agree
		name = mtg_usa_foreign_support.3.a
		ai_chance = {
			factor = 70
		}
	}
}

##event for FROM, USA wants to smuggle in weapons
country_event = {
	id = mtg_usa_foreign_support.4
	title = mtg_usa_foreign_support.4.t
	desc = mtg_usa_foreign_support.4.desc
	picture = GFX_report_event_generic_lend_lease

	is_triggered_only = yes
	option = { #agree to send some rifles
		name = mtg_usa_foreign_support.4.a
		ai_chance = {
			factor = 50
			
		}
		add_political_power = 25
		FROM = {
			country_event = mtg_usa_foreign_support.5
		}
		effect_tooltip = {
			FROM = {
				add_equipment_to_stockpile = { 
					type = infantry_equipment
					amount = 1000
				}
			}
		}
	}
	option = { #agree to send artillery
		name = mtg_usa_foreign_support.4.b
		ai_chance = {
			factor = 20	
		}
		add_political_power = 25
		FROM = {
			country_event = mtg_usa_foreign_support.7
		}
		effect_tooltip = {
			FROM = {
				add_equipment_to_stockpile = { 
					type = artillery_equipment
					amount = 50
				}
			}
		}
	}
	option = { #agree to send tanks
		name = mtg_usa_foreign_support.4.b
		ai_chance = {
			factor = 10	
		}
		trigger = {
			has_tech = basic_light_tank
		}
		add_political_power = 25
		FROM = {
			country_event = mtg_usa_foreign_support.8
		}
		effect_tooltip = {
			FROM = {
				add_equipment_to_stockpile = { 
					type = light_tank_equipment
					amount = 50
				}
			}
		}
	}
	option = { #refuse
		name = mtg_usa_foreign_support.4.d
		ai_chance = {
			factor = 20
		}
		add_political_power = -25
		FROM = {
			country_event = mtg_usa_foreign_support.6
		}
	}
}
#event for US, weapons approved
country_event = {
	id = mtg_usa_foreign_support.5
	title = mtg_usa_foreign_support.5.t
	desc = mtg_usa_foreign_support.5.desc
	picture = GFX_report_event_generic_rifles

	is_triggered_only = yes
	option = { #agree
		name = mtg_usa_foreign_support.5.a
		ai_chance = {
			factor = 70
		}
		add_to_variable = { var = smuggled_weapons value = 1000 }
	}
}
#event for US, weapons refused
country_event = {
	id = mtg_usa_foreign_support.6
	title = mtg_usa_foreign_support.6.t
	desc = mtg_usa_foreign_support.6.desc
	picture = GFX_report_event_generic_read_write

	is_triggered_only = yes
	option = { #agree
		name = mtg_usa_foreign_support.6.a
		ai_chance = {
			factor = 70
		}
	}
}
#event for US, artillery approved
country_event = {
	id = mtg_usa_foreign_support.7
	title = mtg_usa_foreign_support.7.t
	desc = mtg_usa_foreign_support.7.desc
	picture = GFX_report_event_british_artillery

	is_triggered_only = yes
	option = { #agree
		name = mtg_usa_foreign_support.7.a
		ai_chance = {
			factor = 70
		}
		add_to_variable = { var = smuggled_artillery value = 50 }
	}
}
#event for US, tanks approved
country_event = {
	id = mtg_usa_foreign_support.8
	title = mtg_usa_foreign_support.8.t
	desc = mtg_usa_foreign_support.8.desc
	picture = GFX_report_event_polish_tanks_02

	is_triggered_only = yes
	option = { #agree
		name = mtg_usa_foreign_support.8.a
		ai_chance = {
			factor = 70
		}
		add_to_variable = { var = smuggled_tanks value = 50 }
	}
}

##event for FROM, USA wants to build training camps
country_event = {
	id = mtg_usa_foreign_support.9
	title = mtg_usa_foreign_support.9.t
	desc = mtg_usa_foreign_support.9.desc
	picture = GFX_report_event_aid_pact

	is_triggered_only = yes
	option = { #agree
		name = mtg_usa_foreign_support.9.a
		ai_chance = {
			factor = 70
			
		}
		add_political_power = 25
		set_country_flag = USA_training_camps_approved
		FROM = {
			country_event = mtg_usa_foreign_support.10
		}
		effect_tooltip = {
			FROM = {
				army_experience = 10
			}
		}
	}
	option = { #refuse
		name = mtg_usa_foreign_support.9.b
		ai_chance = {
			factor = 30
		}
		add_political_power = -25
		FROM = {
			country_event = mtg_usa_foreign_support.11
		}
	}
}
#event for US, training camps approved
country_event = {
	id = mtg_usa_foreign_support.10
	title = mtg_usa_foreign_support.10.t
	desc = mtg_usa_foreign_support.10.desc
	picture = GFX_report_event_chinese_army_training

	is_triggered_only = yes
	option = { #agree
		name = mtg_usa_foreign_support.10.a
		ai_chance = {
			factor = 70
		}
		set_country_flag = us_training_@FROM	
		FROM = {
			add_ai_strategy = {
   				type = send_volunteers_desire
   				id = PREV
   				value = 200
   			}
   			add_ai_strategy = {
   				type = support
   				id = PREV
   				value = 200
   			}
		}
	}
}
#event for US, training camps refused
country_event = {
	id = mtg_usa_foreign_support.11
	title = mtg_usa_foreign_support.11.t
	desc = mtg_usa_foreign_support.11.desc
	picture = GFX_report_event_generic_read_write

	is_triggered_only = yes
	option = { #agree
		name = mtg_usa_foreign_support.11.a
		ai_chance = {
			factor = 70
		}
	}
}

##event for FROM, USA wants to train pilots
country_event = {
	id = mtg_usa_foreign_support.12
	title = mtg_usa_foreign_support.12.t
	desc = mtg_usa_foreign_support.12.desc
	picture = GFX_report_event_hitler_handshake

	is_triggered_only = yes
	option = { #agree
		name = mtg_usa_foreign_support.12.a
		ai_chance = {
			factor = 70
			
		}
		add_political_power = 25
		set_country_flag = us_pilot_training_approved
		FROM = {
			country_event = mtg_usa_foreign_support.13
		}
		effect_tooltip = {
			FROM = {
				custom_effect_tooltip = us_pilot_training_tt
			}
		}
	}
	option = { #refuse
		name = mtg_usa_foreign_support.12.b
		ai_chance = {
			factor = 30
		}
		add_political_power = -25
		FROM = {
			country_event = mtg_usa_foreign_support.14
		}
	}
}
#event for US, pilot training approved
country_event = {
	id = mtg_usa_foreign_support.13
	title = mtg_usa_foreign_support.13.t
	desc = mtg_usa_foreign_support.13.desc
	picture = GFX_report_event_china_flying_tigers

	is_triggered_only = yes
	option = { #agree
		name = mtg_usa_foreign_support.13.a
		ai_chance = {
			factor = 70
		}
		custom_effect_tooltip = us_pilot_training_tt	
		FROM = {
			add_ai_strategy = {
   				type = send_volunteers_desire
   				id = PREV
   				value = 200
   			}
   			add_ai_strategy = {
   				type = support
   				id = PREV
   				value = 200
   			}
		}
	}
}
#event for US, pilot training refused
country_event = {
	id = mtg_usa_foreign_support.14
	title = mtg_usa_foreign_support.14.t
	desc = mtg_usa_foreign_support.14.desc
	picture = GFX_report_event_generic_read_write

	is_triggered_only = yes
	option = { #agree
		name = mtg_usa_foreign_support.14.a
		ai_chance = {
			factor = 70
		}
	}
}

##event for FROM, USA wants to fund shipyards
country_event = {
	id = mtg_usa_foreign_support.15
	title = mtg_usa_foreign_support.15.t
	desc = mtg_usa_foreign_support.15.desc
	picture = GFX_report_event_destroyers

	is_triggered_only = yes
	option = { #agree
		name = mtg_usa_foreign_support.15.a
		ai_chance = {
			factor = 70
			
		}
		add_political_power = 25
		FROM = {
			country_event = mtg_usa_foreign_support.16
		}
		effect_tooltip = {
			FROM = {
				add_offsite_building = { type = dockyard level = 1}
			}
		}
	}
	option = { #refuse
		name = mtg_usa_foreign_support.15.b
		ai_chance = {
			factor = 30
		}
		add_political_power = -25
		FROM = {
			country_event = mtg_usa_foreign_support.17
		}
	}
}
#event for US, shipyards approved
country_event = {
	id = mtg_usa_foreign_support.16
	title = mtg_usa_foreign_support.16.t
	desc = mtg_usa_foreign_support.16.desc
	picture = GFX_report_event_ast_navy

	is_triggered_only = yes
	option = { #agree
		name = mtg_usa_foreign_support.16.a
		ai_chance = {
			factor = 70
		}
		add_offsite_building = { type = dockyard level = 1 }
	}
}
#event for US, shipyards refused
country_event = {
	id = mtg_usa_foreign_support.17
	title = mtg_usa_foreign_support.17.t
	desc = mtg_usa_foreign_support.17.desc
	picture = GFX_report_event_generic_read_write

	is_triggered_only = yes
	option = { #agree
		name = mtg_usa_foreign_support.17.a
		ai_chance = {
			factor = 70
		}
	}
}

###########################
#  Panay Incident events
###########################

add_namespace = panay_incident

#Hidden event to trigger synchronised Panay events for USA and ENG
country_event = {
	id = panay_incident.1

	hidden = yes

    is_triggered_only = yes

	fire_only_once = yes

	immediate = {
		hidden_effect = {
			USA = {
				country_event = { id = panay_incident.2 days = 1 }
			}
			news_event = { id = news.334 }
		}
	}
	option = {}
}

#Panay Incident - USA notification
country_event = {
	id = panay_incident.2
	title = panay_incident.2.t
	desc = { #Low war support text
		text = panay_incident.2.d
		trigger = {
			USA = { has_war_support < 0.5 }
		}
	}

	desc = { #High war support text
		text = panay_incident.2.e
		trigger = {
			USA = { has_war_support > 0.49 }
		}
	}

	picture = GFX_report_event_panay_incident

	is_triggered_only = yes

	option = { #Pull forces out of China - low war support
		name = panay_incident.2.a
		custom_effect_tooltip = panay_incident.2.a.tt
		trigger = { has_war_support < 0.4 }
		ai_chance = {
			factor = 10
			modifier = {
				factor = 0
				USA_is_on_historical_plan_trigger = yes
			}
		}
		add_war_support = -0.05
		add_stability = 0.05
		if = {
			limit = {
				has_completed_focus = USA_neutrality_act
			}
			add_political_power = 50
		}
		add_opinion_modifier = { target = JAP modifier = panay_inc_opinion_modifier }
		hidden_effect = { JAP = { country_event = { id = panay_incident.6 days = 2 } } } #Info event for Japan
	}
	option = { #Pull forces out of China - medium or above war support
		name = panay_incident.2.a
		custom_effect_tooltip = panay_incident.2.e.tt
		trigger = { has_war_support > 0.39 }
		ai_chance = {
			factor = 2
			modifier = {
				factor = 0
				USA_is_on_historical_plan_trigger = yes
			}
		}
		add_war_support = -0.05
		add_opinion_modifier = { target = JAP modifier = panay_inc_opinion_modifier }
		hidden_effect = { JAP = { country_event = { id = panay_incident.6 days = 2 } } } #Info event for Japan
	}
	option = { #Demand compensation
		name = panay_incident.2.b
		custom_effect_tooltip = panay_incident.2.b.tt
		ai_chance = { factor = 85 }
		add_war_support = 0.05
		set_country_flag = { flag = USA_panay_window days = 90 value = 1 }
		hidden_effect = { JAP = { country_event = { id = panay_incident.3 days = 2 } } } #Delay added so events are spaced out - historically it took months to get JAP to agree to compensation, but that'd be a bit hard to follow in-game, so timelines compressed.
		add_opinion_modifier = { target = JAP modifier = panay_inc_opinion_modifier }
	}
	###ayy how about NOT having an option for war. 
}

#Panay Incident - JAP gets demand for compensation
country_event = {
	id = panay_incident.3
	title = panay_incident.3.t
	desc = panay_incident.3.d
	picture = GFX_report_event_us_panay_demands

	is_triggered_only = yes

	option = { #Pay compensation
		name = panay_incident.3.a
		ai_chance = { factor = 70 }
		add_political_power = -100
		hidden_effect = { USA = { country_event = { id = panay_incident.4 days = 2 } } } #Delay added to space things out
	}
	option = { #We shall never bw down to the western Imperialists!
		name = panay_incident.3.b
		custom_effect_tooltip = panay_incident.3.b.tt
		ai_chance = {
			factor = 30
			modifier = {
				factor = 0
				is_historical_focus_on = yes
			}
		}
		add_political_power = 100
		hidden_effect = { USA = { country_event = { id = panay_incident.5 days = 2 } } } #Delay added here and in earlier event so rest of the world doesn't get Panay Incident one day and War the next, unless US is particularly gung-ho in response to initial event.
	}
}

#Panay Incident - USA receives JAP compensation
country_event = {
	id = panay_incident.4
	title = panay_incident.4.t
	desc = panay_incident.4.d
	picture = GFX_report_event_generic_sign_treaty1

	is_triggered_only = yes

	option = {
		name = panay_incident.4.a
		add_political_power = 100
	}
}

#Panay Incident - USA receives JAP refusal
country_event = {
	id = panay_incident.5
	title = panay_incident.5.t
	desc = panay_incident.5.d
	picture = GFX_report_event_japanese_reply

	is_triggered_only = yes

	option = {
		name = panay_incident.5.a
		ai_chance = { factor = 60 }
		add_political_power = -10
		add_war_support = -0.02
		add_stability = 0.05
	}
	###ayy what about NOT having an event to go to war 
}

#Event for Japan if USA withdraws forces.
country_event = {
	id = panay_incident.6
	title = panay_incident.6.t
	desc = panay_incident.6.d
	picture = GFX_report_event_oahu_withdraws

	is_triggered_only = yes

	option = {
		name = panay_incident.6.a
		add_political_power = 100
	}
}